{
    "Image_Build_IDs": {
        "adsp": "ADSP.VT.5.0-00484-SDM710-1", 
        "aop": "AOP.HO.1.1.C1-00023-SDM710AAAAANAZO-1", 
        "apps": "LA.UM.8.8.r1-04800-SDM710.0-1", 
        "boot": "BOOT.XF.2.1-00118-SDM710LZB-1", 
        "btfm": "BTFM.CHE.2.1.4-00530-QCACHROMZ-1", 
        "cdsp": "CDSP.VT.2.0-00240-SDM710-1", 
        "common": "SDM670.LA.2.1-00040-STD.PROD-1", 
        "cpev2": "CPE.TSF.3.0-00002-W9335AAAAAAAZQ-4", 
        "glue": "GLUE.SDM670_LA.2.0-00011-NOOP_TEST-1", 
        "modem": "MPSS.AT.4.0.2-00567-SDM710_GEN_PACK-1", 
        "tz": "TZ.XF.5.0.2-00126-S710AAAAANAZT-1", 
        "video": "VIDEO.VE.5.0-00087-PROD-1", 
        "wapi": "WLAN_ADDON.HL.1.0-00037-CNSS_RMZ_WAPI-1", 
        "wdsp": "WDSP.9340.1.0-00277-W9340AAAAAAAZQ-1", 
        "wlan": "WLAN.HL.2.0.1-00824-QCAHLSWMTPLZ-1"
    }, 
    "Metabuild_Info": {
        "Meta_Build_ID": "SDM670.LA.2.1-00040-STD.PROD-1", 
        "Product_Flavor": "asic", 
        "Time_Stamp": "2021-07-13 22:52:03"
    }, 
    "Version": "1.0"
}